<?xml version="1.0" encoding="UTF-8"?>
<svg xmlns="http://www.w3.org/2000/svg" xmlns:xlink="http://www.w3.org/1999/xlink" width="6.482pt" height="6.365pt" viewBox="0 0 6.482 6.365" version="1.2">
<defs>
<g>
<symbol overflow="visible" id="glyph0-0">
<path style="stroke:none;" d=""/>
</symbol>
<symbol overflow="visible" id="glyph0-1">
<path style="stroke:none;" d="M 1.484375 -4.03125 C 1.484375 -4.015625 0.3125 1.4375 0.25 1.734375 L 0.25 1.765625 L 0.96875 1.765625 L 0.96875 1.734375 C 0.984375 1.734375 1.0625 1.28125 1.171875 0.765625 L 1.375 -0.1875 L 1.40625 -0.15625 C 1.671875 0.078125 2.15625 0.15625 2.578125 0.046875 C 2.84375 -0.015625 3.078125 -0.140625 3.3125 -0.359375 C 3.359375 -0.40625 3.390625 -0.421875 3.390625 -0.421875 L 3.40625 -0.390625 C 3.453125 -0.296875 3.546875 -0.15625 3.65625 -0.078125 C 3.921875 0.125 4.296875 0.15625 4.609375 0.015625 C 4.9375 -0.140625 5.234375 -0.484375 5.421875 -0.9375 C 5.484375 -1.0625 5.5625 -1.28125 5.546875 -1.296875 C 5.53125 -1.3125 5.03125 -1.390625 5.015625 -1.390625 L 4.984375 -1.28125 C 4.921875 -1.046875 4.828125 -0.8125 4.734375 -0.703125 C 4.65625 -0.578125 4.546875 -0.484375 4.421875 -0.46875 C 4.265625 -0.4375 4.15625 -0.5 4.09375 -0.625 C 4.0625 -0.703125 4.046875 -0.765625 4.046875 -0.875 C 4.0625 -0.953125 4.09375 -1.140625 4.375 -2.5 C 4.5625 -3.328125 4.703125 -4.015625 4.703125 -4.03125 C 4.703125 -4.03125 4.65625 -4.03125 4.34375 -4.03125 L 4 -4.03125 L 3.796875 -3.125 C 3.578125 -2.078125 3.546875 -1.921875 3.453125 -1.65625 C 3.25 -1.046875 3.015625 -0.6875 2.6875 -0.53125 C 2.453125 -0.421875 2.15625 -0.4375 1.953125 -0.5625 C 1.6875 -0.703125 1.59375 -1.046875 1.671875 -1.484375 C 1.671875 -1.546875 1.796875 -2.125 1.9375 -2.796875 C 2.078125 -3.46875 2.1875 -4.015625 2.1875 -4.03125 C 2.1875 -4.046875 1.484375 -4.046875 1.484375 -4.03125 Z M 1.484375 -4.03125 "/>
</symbol>
</g>
<clipPath id="clip1">
  <path d="M 0.0585938 0 L 5.953125 0 L 5.953125 5.789062 L 0.0585938 5.789062 Z M 0.0585938 0 "/>
</clipPath>
</defs>
<g id="surface1">
<g clip-path="url(#clip1)" clip-rule="nonzero">
<g style="fill:rgb(0%,0%,0%);fill-opacity:1;">
  <use xlink:href="#glyph0-1" x="0.0585" y="4.026317"/>
</g>
</g>
</g>
</svg>
